{
  "Main": {
    "sitename": {
      "type": "Text",
      "config": {
        "label": "siteName"
      }
    },
    "favicon": {
      "type": "Image",
      "config": {
        "constraint": {},
        "thumbnails": [],
        "label": "favicon"
      }
    },
    "metatitle": {
      "type": "StructuredText",
      "config": {
        "single": "heading1,heading2,heading3,heading4,heading5,heading6",
        "label": "metaTitle"
      }
    },
    "metadescriptions": {
      "type": "Text",
      "config": {
        "label": "metaDescriptions"
      }
    }
  }
}
